…
Merge them. Calculate the population in each neighborhood/block combo by
multiplying the pct.of.block adjustment factor by the population of the
block. Group by neighborhood, then summarize.

``` r
blocks.to.neighborhoods %>%
  inner_join(total.pop) %>%
  mutate(pop.in.neighborhood = pop * pct.of.block) %>%
  group_by(neighborhood) %>%
  summarise(pop = sum(pop.in.neighborhood)) %>%
  arrange(desc(pop))
```

    ## # A tibble: 186 x 2
    ##    neighborhood                pop
    ##    <chr>                     <dbl>
    ##  1 BAY VIEW                 16613 
    ##  2 LINCOLN VILLAGE          13062 
    ##  3 OLD NORTH MILWAUKEE      12226.
    ##  4 HISTORIC MITCHELL STREET 12016 
    ##  5 MUSKEGO WAY              11932 
    ##  6 HARAMBEE                 11815 
    ##  7 RIVERWEST                11520 
    ##  8 SILVER SPRING            11441 
    ##  9 LOWER EAST SIDE          10333.
    ## 10 MORGANDALE                9040 
    ## # … with 176 more rows

The above process works as long as you are dealing with a population
count. If you want to (dis)aggregate a summary value (like median age),
you can use the `pct.of.neighborhood` value to calculate a weighted
mean.

``` r
blocks.to.neighborhoods %>%
  inner_join(median.age) %>%
  group_by(neighborhood) %>%
  summarise(median_age = weighted.mean(x = age, w = pct.of.neighborhood, na.rm = T)) %>%
  arrange(desc(median_age))
```

    ## # A tibble: 186 x 2
    ##    neighborhood     median_age
    ##    <chr>                 <dbl>
    ##  1 FREEDOM VILLAGE        70.8
    ##  2 WHISPERING HILLS       65.8
    ##  3 HILLSIDE               64.4
    ##  4 BRYNWOOD               61.3
    ##  5 GRANVILLE WOODS        54.4
    ##  6 VALLEY FORGE           52.0
    ##  7 MACK ACRES             51.3
    ##  8 MILL VALLEY            48.0
    ##  9 GOLDEN GATE            47.4
    ## 10 COPERNICUS PARK        46.6
    ## # … with 176 more rows
…
